<?xml version="1.0" encoding="UTF-8"?>
<svg width="14px" height="80px" viewBox="0 0 14 80" version="1.1" xmlns="http://www.w3.org/2000/svg" xmlns:xlink="http://www.w3.org/1999/xlink">
    <!-- Generator: Sketch 55 (78076) - https://sketchapp.com -->
    <title>Group 11 Copy</title>
    <desc>Created with Sketch.</desc>
    <g id="Home" stroke="none" stroke-width="1" fill="none" fill-rule="evenodd">
        <g transform="translate(-924.000000, -304.000000)" id="Group">
            <g transform="translate(532.000000, 240.000000)">
                <g id="Group-4" transform="translate(32.000000, 65.000000)">
                    <g id="Group-11-Copy" transform="translate(361.000000, 0.000000)">
                        <g id="Group-7">
                            <polyline id="Fill-1" points="0 36.1591474 11.4675 36.1591474 6.216 30.9997789"></polyline>
                            <polyline id="Stroke-2" stroke="#BA9540" stroke-width="2" stroke-linecap="round" stroke-linejoin="round" points="0 36.1591474 11.4675 36.1591474 6.216 30.9997789 6 -2.25814039e-15"></polyline>
                            <polyline id="Fill-4" points="11.4672 39.1052632 -0.0003 39.1052632 5.2512 44.2646316"></polyline>
                            <polyline id="Stroke-5" stroke="#BA9540" stroke-width="2" stroke-linecap="round" stroke-linejoin="round" points="11.4672 41.1052632 -0.0003 41.1052632 5.2512 46.2646316 5.5 78"></polyline>
                        </g>
                    </g>
                </g>
            </g>
        </g>
    </g>
</svg>